Company name,ASX code,GICS industry groupy
MOQ LIMITED,MOQ,Software & Services
8COMMON LIMITED,8CO,Software & Services
9 SPOKES INTERNATIONAL LIMITED,9SP,Software & Services
99 TECHNOLOGY LIMITED,NNT,Software & Services
ADACEL TECHNOLOGIES LIMITED,ADA,Software & Services
